鄉鎮市區,交易標的,土地區段位置或建物區門牌,土地移轉總面積平方公尺,都市土地使用分區,非都市土地使用分區,非都市土地使用編定,交易年月,交易筆棟數,移轉層次,總樓層數,建物型態,主要用途,主要建材,建築完成年月,建物移轉總面積平方公尺,建物現況格局-房,建物現況格局-廳,建物現況格局-衛,建物現況格局-隔間,有無管理組織,總價元,單價每平方公尺,車位類別,車位移轉總面積平方公尺,車位總價元
金沙鎮,土地,斗門劃測段481~510地號,400.02,農,,,10308,土地1建物0車位0,,,其他,,,,0.0,0,0,0,有,無,1650000,4125,,0.0,0
烈嶼鄉,土地,龍骨山測段1081~1110地號,72.65,其他,,,10308,土地1建物0車位0,,,其他,,,,0.0,0,0,0,有,無,100000,1376,,0.0,0
金城鎮,房地(土地+建物),金門縣金城鎮環島北路一段38巷16弄1~30號,35.07,農,,,10307,土地2建物1車位0,一層,003,公寓(5樓含以下無電梯),住家用,鋼筋混凝土加強磚造,0841103,104.84,3,2,2,有,無,6200000,59138,,0.0,0
金湖鎮,房地(土地+建物),金門縣金湖鎮夏興61~90號,22.71,住,,,10308,土地3建物1車位0,三層,003,套房(1房1廳1衛),見其他登記事項,鋼筋混凝土造,0880827,39.730000000000004,0,0,0,無,無,600000,15102,,0.0,0
金沙鎮,土地,高坑劃測段661~690地號,3011.15,農,,,10307,土地3建物0車位0,,,其他,,,,0.0,0,0,0,有,無,13800000,4583,,0.0,0
金寧鄉,房地(土地+建物),金門縣金寧鄉湖南31~60號,114.38,住,,,10308,土地1建物1車位0,全,003,透天厝,見其他登記事項,鋼筋混凝土造,1030702,173.43,5,1,5,有,無,6600000,38056,,0.0,0
金寧鄉,土地,古寧頭段361~390地號,10.0,住,,,10308,土地1建物0車位0,,,其他,,,,0.0,0,0,0,有,無,80000,8000,,0.0,0
金城鎮,土地,東紅山段541~570地號,773.41,其他,,,10308,土地1建物0車位0,,,其他,,,,0.0,0,0,0,有,無,1100000,1422,,0.0,0
金湖鎮,土地,庵邊段601~630地號,1002.0,其他,,,10308,土地1建物0車位0,,,其他,,,,0.0,0,0,0,有,無,17034000,17000,,0.0,0
烈嶼鄉,土地,西方劃測段61~90地號,1120.0,農,,,10308,土地1建物0車位0,,,其他,,,,0.0,0,0,0,有,無,10000000,8929,,0.0,0
金湖鎮,土地,湖前段1231~1260地號,677.0,其他,,,10308,土地1建物0車位0,,,其他,,,,0.0,0,0,0,有,無,27080000,40000,,0.0,0
金城鎮,土地,賢厝段721~750地號,1508.0,農,,,10308,土地1建物0車位0,,,其他,,,,0.0,0,0,0,有,無,3250000,2155,,0.0,0
金寧鄉,房地(土地+建物),金門縣金寧鄉前厝31~60號,41.67,其他,,,10308,土地1建物1車位0,二層,003,公寓(5樓含以下無電梯),見其他登記事項,鋼筋混凝土造,1030722,72.67,2,1,2,有,無,4500000,61924,,0.0,0
金寧鄉,房地(土地+建物),金門縣金寧鄉前厝31~60號,41.67,其他,,,10308,土地1建物1車位0,一層,003,公寓(5樓含以下無電梯),見其他登記事項,鋼筋混凝土造,1030722,71.36,2,1,2,有,無,4500000,63061,,0.0,0
金寧鄉,房地(土地+建物),金門縣金寧鄉前厝31~60號,41.67,其他,,,10308,土地1建物1車位0,三層,003,公寓(5樓含以下無電梯),見其他登記事項,鋼筋混凝土造,1030722,72.67,2,1,2,有,無,3500000,48163,,0.0,0
金寧鄉,房地(土地+建物),金門縣金寧鄉前厝31~60號,41.67,其他,,,10308,土地1建物1車位0,一層,003,公寓(5樓含以下無電梯),見其他登記事項,鋼筋混凝土造,1030722,71.36,2,1,2,有,無,3150000,44142,,0.0,0
金寧鄉,房地(土地+建物),金門縣金寧鄉前厝31~60號,41.67,其他,,,10308,土地1建物1車位0,二層,003,公寓(5樓含以下無電梯),見其他登記事項,鋼筋混凝土造,1030722,72.67,2,1,2,有,無,3300000,45411,,0.0,0
金寧鄉,房地(土地+建物),金門縣金寧鄉前厝31~60號,41.67,其他,,,10308,土地1建物1車位0,三層,003,公寓(5樓含以下無電梯),見其他登記事項,鋼筋混凝土造,1030722,72.67,2,1,2,有,無,3500000,48163,,0.0,0
金沙鎮,土地,浦邊測段421~450地號,1289.39,其他,,,10308,土地2建物0車位0,,,其他,,,,0.0,0,0,0,有,無,6000000,4653,,0.0,0
金寧鄉,房地(土地+建物),金門縣金寧鄉安岐181~210號,132.5,其他,,,10309,土地1建物1車位0,全,003,透天厝,見其他登記事項,鋼筋混凝土造,1030805,204.98,5,2,5,有,無,5600000,27320,,0.0,0
金沙鎮,土地,斗門劃測段421~450地號,1600.03,農,,,10307,土地1建物0車位0,,,其他,,,,0.0,0,0,0,有,無,7000000,4375,,0.0,0
金沙鎮,土地,汶沙段361~390地號,33.0,其他,,,10309,土地1建物0車位0,,,其他,,,,0.0,0,0,0,有,無,1200000,36364,,0.0,0
金寧鄉,土地,寧湖一劃段151~180地號,1000.02,農,,,10308,土地1建物0車位0,,,其他,,,,0.0,0,0,0,有,無,13500000,13500,,0.0,0
金寧鄉,房地(土地+建物),金門縣金寧鄉下后垵31~60號,66.0,住,,,10308,土地1建物1車位0,二層,003,公寓(5樓含以下無電梯),見其他登記事項,鋼筋混凝土造,1030217,104.51,3,2,2,有,無,7000000,66979,,0.0,0
金湖鎮,土地,湖高劃段31~60地號,1669.0,農,,,10308,土地1建物0車位0,,,其他,,,,0.0,0,0,0,有,無,8000000,4793,,0.0,0
金湖鎮,房地(土地+建物),金門縣金湖鎮信義新村91~120號,74.8,其他,,,10309,土地1建物1車位0,三層,003,公寓(5樓含以下無電梯),住家用,鋼筋混凝土造,0940420,77.06,2,2,1,有,無,4200000,54503,,0.0,0
金沙鎮,土地,大山段901~930地號,591.0,其他,,,10300,土地1建物0車位0,,,其他,,,,0.0,0,0,0,有,無,591000,1000,,0.0,0
金寧鄉,土地,北二三劃測段691~720地號,1000.0,農,,,10308,土地1建物0車位0,,,其他,,,,0.0,0,0,0,有,無,8000000,8000,,0.0,0
金湖鎮,土地,漁村段451~480地號,427.92,其他,,,10308,土地1建物0車位0,,,其他,,,,0.0,0,0,0,有,無,300000,701,,0.0,0
金寧鄉,土地,安西劃段181~210地號,87.03,其他,,,10308,土地1建物0車位0,,,其他,,,,0.0,0,0,0,有,無,1600000,18384,,0.0,0
金湖鎮,土地,湖前段691~720地號,1116.45,農,,,10309,土地3建物0車位0,,,其他,,,,0.0,0,0,0,有,無,3500000,3135,,0.0,0
金湖鎮,土地,漁村段391~420地號,115.36,其他,,,10309,土地1建物0車位0,,,其他,,,,0.0,0,0,0,有,無,1500000,13003,,0.0,0
金湖鎮,土地,漁村段451~480地號,95.29,其他,,,10308,土地1建物0車位0,,,其他,,,,0.0,0,0,0,有,無,20000,210,,0.0,0
金寧鄉,土地,寧湖三劃段841~870地號,1387.0,農,,,10309,土地1建物0車位0,,,其他,,,,0.0,0,0,0,有,無,11000000,7931,,0.0,0
金寧鄉,土地,湖南村段1~30地號,362.0,其他,,,10309,土地1建物0車位0,,,其他,,,,0.0,0,0,0,有,無,9412000,26000,,0.0,0
金寧鄉,房地(土地+建物),金門縣金寧鄉下堡151~180號,81.22,其他,,,10309,土地1建物1車位0,全,003,透天厝,見其他登記事項,鋼筋混凝土造,1010625,193.61,5,3,4,有,無,12500000,64563,,0.0,0
金湖鎮,土地,中四劃段1~30地號,630.0,農,,,10309,土地2建物0車位0,,,其他,,,,0.0,0,0,0,有,無,6000000,9524,,0.0,0
金城鎮,土地,山前段1051~1080地號,731.18,農,,,10309,土地2建物0車位0,,,其他,,,,0.0,0,0,0,有,無,6000000,8206,,0.0,0
金湖鎮,土地,中五劃段211~240地號,348.24,農,,,10309,土地2建物0車位0,,,其他,,,,0.0,0,0,0,有,無,1680000,4824,,0.0,0
金寧鄉,土地,寧北一劃段331~360地號,227.0,農,,,10309,土地1建物0車位0,,,其他,,,,0.0,0,0,0,有,無,430000,1894,,0.0,0
金寧鄉,房地(土地+建物),金門縣金寧鄉湖南31~60號,111.5,住,,,10308,土地1建物1車位0,全,003,透天厝,見其他登記事項,鋼筋混凝土造,1030702,173.43,5,2,5,有,無,6800000,39209,,0.0,0
金寧鄉,土地,寧湖三劃段211~240地號,1000.0,農,,,10309,土地1建物0車位0,,,其他,,,,0.0,0,0,0,有,無,10500000,10500,,0.0,0
